{
    "certificateAuthorities": {
        "PharmacyCA": {
            "caName": "ca",
            "url": "http://localhost:18050"
        }
    },
    "client": {
        "connection": {
            "timeout": {
                "orderer": "300",
                "peer": {
                    "endorser": "300"
                }
            }
        },
        "organization": "PharmacyMSP"
    },
    "name": "Pharmacy gateway",
    "organizations": {
        "PharmacyMSP": {
            "certificateAuthorities": [
                "PharmacyCA"
            ],
            "mspid": "PharmacyMSP",
            "peers": [
                "PharmacyPeer1"
            ]
        }
    },
    "peers": {
        "PharmacyPeer1": {
            "url": "grpc://localhost:18051"
        }
    },
    "version": "1.0.0",
    "wallet": "Pharmacy"
}