{
    "api_url": "http://localhost:18050",
    "ca_name": "ca",
    "container_name": "ca.pharmacy.health.com",
    "identity": "admin",
    "msp_id": "PharmacyMSP",
    "name": "PharmacyCA",
    "short_name": "PharmacyCA",
    "type": "fabric-ca",
    "wallet": "Pharmacy"
}