{
    "api_url": "grpc://localhost:18051",
    "chaincode_url": "grpc://localhost:18052",
    "container_name": "peer0.pharmacy.health.com",
    "identity": "ManAdmin",
    "msp_id": "PharmacyMSP",
    "name": "PharmacyPeer1",
    "short_name": "PharmacyPeer1",
    "type": "fabric-peer",
    "wallet": "Pharmacy"
}