{
    "api_url": "http://localhost:19050",
    "ca_name": "ca",
    "container_name": "ca.gp.health.com",
    "identity": "admin",
    "msp_id": "GpMSP",
    "name": "GpCA",
    "short_name": "GpCA",
    "type": "fabric-ca",
    "wallet": "Gp"
}