{
    "api_url": "grpc://localhost:19051",
    "chaincode_url": "grpc://localhost:19052",
    "container_name": "peer0.gp.health.com",
    "identity": "GpAdmin",
    "msp_id": "GpMSP",
    "name": "GpPeer1",
    "short_name": "GpPeer1",
    "type": "fabric-peer",
    "wallet": "Gp"
}